National Instant Criminal Background Check System statistics,http://www.fbi.gov/about-us/cjis/nics,FBI,,,,,,,,,,,
Year,Jan, Feb ,Mar,Apr,May,Jun,Jul,Aug,Sep,Oct,Nov,Dec,TOTAL
1998,,,,,,,,,,,21196,871644,892840
1999,591355,696323,753083,646712,576272,569493,589476,703394,808627,945701,1004333,1253354,9138123
2000,639972,707070,736543,617689,538648,550561,542520,682501,782087,845886,898598,1000962,8543037
2001,640528,675156,729532,594723,543501,540491,539498,707288,864038,1029691,983186,1062559,8910191
2002,665803,694668,714665,627745,569247,518351,535594,693139,724123,849281,887647,974059,8454322
2003,653751,708281,736864,622832,567436,529334,533289,683517,738371,856863,842932,1008118,8481588
2004,695000,723654,738298,642589,542456,546847,561773,666598,740260,865741,890754,1073701,8687671
2005,685811,743070,768290,658954,557058,555560,561358,687012,791353,852478,927419,1164582,8952945
2006,775518,820679,845219,700373,626270,616097,631156,833070,919487,970030,1045194,1253840,10036933
2007,894608,914954,975806,840271,803051,792943,757884,917358,944889,1025123,1079923,1230525,11177335
2008,942556,1021130,1040863,940961,886183,819891,891224,956872,973003,1183279,1529635,1523426,12709023
2009,1213885,1259078,1345096,1225980,1023102,968145,966162,1074757,1093230,1233982,1223252,1407155,14033824
2010,1119229,1243211,1300100,1233761,1016876,1005876,1069792,1089374,1145798,1368184,1296223,1521192,14409616
2011,1323336,1473513,1449724,1351255,1230953,1168322,1157041,1310041,1253752,1340273,1534414,1862327,16454951
2012,1377301,1749903,1727881,1427343,1316226,1302660,1300704,1526206,1459363,1614032,2006919,,16808538
,,,,,,,,,,,,,
,,,,,,,,,,,,,
Year,TOTAL,,,,,,,,,,,,
1998,892840,,,,,,,,,,,,
1999,9138123,,,,,,,,,,,,
2000,8543037,,,,,,,,,,,,
2001,8910191,,,,,,,,,,,,
2002,8454322,,,,,,,,,,,,
2003,8481588,,,,,,,,,,,,
2004,8687671,,,,,,,,,,,,
2005,8952945,,,,,,,,,,,,
2006,10036933,,,,,,,,,,,,
2007,11177335,,,,,,,,,,,,
2008,12709023,,,,,,,,,,,,
2009,14033824,,,,,,,,,,,,
2010,14409616,,,,,,,,,,,,
2011,16454951,,,,,,,,,,,,
2012,16808538,,,,,,,,,,,,
,,,,,,,,,,,,,
,,,,,,,,,,,,,
,,,,,,,,,,,,,
,,,,,,,,,,,,,
"Mandated by the Brady Handgun Violence Prevention Act of 1993 and launched by the FBI on November 30, 1998, NICS is used by Federal Firearms Licensees (FFLs) to instantly determine whether a prospective buyer is eligible to buy firearms or explosives. Before ringing up the sale, cashiers call in a check to the FBI or to other designated agencies to ensure that each customer does not have a criminal record or isn’t otherwise ineligible to make a purchase. More than 100 million such checks have been made in the last decade, leading to more than 700,000 denials.",,,,,,,,,,,,,
,,,,,,,,,,,,,
Reasons for denial,,,,,,,,,,,,,
Has been convicted in any court of a crime punishable by imprisonment for a term exceeding one year,,,,,,,,,,,,,
Is under indictment for a crime punishable by imprisonment for a term exceeding one year,,,,,,,,,,,,,
Is a fugitive from justice,,,,,,,,,,,,,
Is an unlawful user of or addicted to any controlled substance,,,,,,,,,,,,,
Has been adjudicated as a mental defective or committed to a mental institution,,,,,,,,,,,,,
Is illegally or unlawfully in the United States,,,,,,,,,,,,,
Has been discharged from the Armed Forces under dishonorable conditions,,,,,,,,,,,,,
"Having been a citizen of the United States, has renounced U.S. citizenship",,,,,,,,,,,,,
"Is subject to a court order that restrains the person from harassing, stalking, or threatening an intimate partner or child of such intimate partner",,,,,,,,,,,,,
Has been convicted in any court of a misdemeanor crime of domestic violence,,,,,,,,,,,,,